<svg width="20" height="20" viewBox="0 0 20 20" fill="none" xmlns="http://www.w3.org/2000/svg">
<path fill-rule="evenodd" clip-rule="evenodd" d="M0 9.80561C0 4.38972 4.39008 0 9.80534 0C15.2209 0 19.611 4.38976 19.611 9.80561C19.611 15.2207 15.2209 19.6108 9.80534 19.6108C4.39008 19.6108 0 15.2207 0 9.80561Z" fill="#5B7DFF"/>
<path fill-rule="evenodd" clip-rule="evenodd" d="M10.2388 4L12.1675 7.90589L16.4783 8.53304L13.3583 11.5732L14.0947 15.867L10.2388 13.8398L6.38245 15.867L7.11913 11.5732L4 8.53304L8.3113 7.90589L10.2388 4Z" fill="white"/>
</svg>
